<?xml version="1.0" encoding="utf-8"?>
<!-- Generator: Adobe Illustrator 25.3.1, SVG Export Plug-In . SVG Version: 6.00 Build 0)  -->
<svg version="1.1" id="Layer_1" xmlns="http://www.w3.org/2000/svg" xmlns:xlink="http://www.w3.org/1999/xlink" x="0px" y="0px"
	 width="98px" height="88px" viewBox="0 0 98 88" style="enable-background:new 0 0 98 88;" xml:space="preserve">
<style type="text/css">
	.st0{fill:#FFFFFF;}
	.st1{fill:#78DEA2;}
</style>
<g>
	<path class="st0" d="M83.6,22.3C83.6,22.3,83.6,22.3,83.6,22.3c-12-0.3-12.9-0.7-13.2-0.9c-0.7-0.4-1.1-1.3-0.7-2
		c0.3-0.7,1.2-1,1.9-0.8c0.9,0.2,5.7,0.4,10.5,0.6c-0.9-9.5-8.1-11.5-8.5-11.6c-0.8-0.2-1.3-1-1.1-1.8c0.2-0.8,1-1.3,1.8-1.1
		c0.1,0,10.6,2.8,10.8,16c0,0.4-0.2,0.8-0.4,1.1C84.4,22.2,84,22.3,83.6,22.3z M71.6,18.7C71.6,18.7,71.7,18.7,71.6,18.7
		C71.7,18.7,71.6,18.7,71.6,18.7z"/>
	<path class="st1" d="M69.5,77.6c-1.9,0-7.1-0.7-23.4-3.5c-23.3-3.9-24.3-4.6-24.6-4.8c-2.9-2-0.9-19.8-0.8-20
		c0.3-2.3-0.2-7.6-0.8-13.2c-0.6-5.8-1.2-11.8-1-16c0.3-7.8,1.1-15.7,7.8-18.9c1.7-0.8,6.2-1.6,26.2,0.7c10.9,1.3,21.2,2.9,21.3,2.9
		c0.6,0.1,1.1,0.5,1.2,1.1S75.3,7,74.9,7.4c-3.6,2.7-2.4,20.6-1.5,33.7c0.2,2.4,0.3,4.8,0.4,7.1c1,16.5-1.7,27.8-3,29
		C70.5,77.4,70.4,77.6,69.5,77.6z M23.4,66.8c4.3,1.2,39.1,7.2,45.4,7.8c0.8-2.6,2.9-11.6,2-26.2c-0.1-2.3-0.3-4.7-0.4-7.1
		c-1.1-16.6-1.6-28.6,1-34C55.5,4.9,31.6,2.1,28,3.8c-4.7,2.3-5.8,7.7-6.1,16.3c-0.1,4.1,0.4,9.9,1,15.6c0.6,6,1.1,11.2,0.8,13.9
		C23,54.9,22.7,64.7,23.4,66.8z M23.5,67.1C23.5,67.1,23.5,67.1,23.5,67.1L23.5,67.1z"/>
	<path class="st1" d="M46.1,20.1C46.1,20.1,46.1,20.1,46.1,20.1C43.3,20,31.4,18,30.9,17.9c-0.8-0.1-1.4-0.9-1.2-1.7
		c0.1-0.8,0.9-1.4,1.7-1.2c3.4,0.6,12.6,2.1,14.7,2.1c0.8,0,1.5,0.7,1.5,1.5C47.6,19.4,46.9,20.1,46.1,20.1z"/>
	<path class="st1" d="M61.1,31.7c-0.1,0-2.7,0-8.5-1.3C47.1,29.2,31,28,30.8,28c-0.8-0.1-1.4-0.8-1.4-1.6c0.1-0.8,0.8-1.5,1.6-1.4
		c0.7,0.1,16.5,1.3,22.2,2.5c5.4,1.2,7.8,1.2,7.9,1.2c0.8,0,1.5,0.7,1.5,1.5C62.6,31,61.9,31.7,61.1,31.7z"/>
	<path class="st1" d="M61.3,42c-0.1,0-0.2,0-0.3,0c-11.7-2.4-30.3-4-30.5-4c-0.8-0.1-1.4-0.8-1.4-1.6c0.1-0.8,0.8-1.4,1.6-1.4
		c0.2,0,18.9,1.6,30.8,4.1c0.8,0.2,1.3,1,1.2,1.8C62.7,41.5,62,42,61.3,42z"/>
	<path class="st0" d="M63.4,60.6c0.1-0.4,0.5-1.1,0.8-1.5c0.8-1.5,1.5-2.8,0.9-3.9c-0.8-1.5-2.8-1.9-5.2-2.3c-0.2,0-0.5-0.1-0.7-0.1
		c-0.4-0.5-0.7-1.1-0.9-1.8c-0.4-1.1-1-3.1-3.3-3c-2,0.1-5.2,2-6.7,3.1c-4.1-2.2-6-1.9-6.9-1.1c-1.5,1.3-1.6,4.4-1.6,6.2L37.4,59
		c-0.4,0.4-0.7,1.1-0.6,2c0.1,1.3,1.1,2.5,2.8,3.8c0,1.5,0.1,4.1,1.7,5.5c0.5,0.4,1.1,0.7,1.7,0.9c-0.1,13.3-0.1,13.7-0.1,13.8
		c0.1,0.5,0.5,1,1,1.2c0.9,0.3,1.2,0.4,6.8-4.7c5.3,5.9,6,6,6.5,6.1c0.1,0,0.1,0,0.2,0c0.4,0,0.8-0.2,1.1-0.4
		c0.6-0.5,1.2-1.1,0.1-16.2c0.4-0.6,0.8-1.3,1-1.7c0.2-0.1,0.4-0.2,0.6-0.3c1.4-0.7,3.6-1.7,4.5-3.5c0.6-1.2,0-2.5-0.7-3.7
		C63.8,61.5,63.6,61,63.4,60.6z M52,78.5c-0.3-0.3-0.6-0.5-1-0.5c-0.4,0-0.8,0.1-1.1,0.4c-1.3,1.2-2.8,2.5-3.9,3.5
		c0-2.7,0-6.8,0.1-10.1c0.3,0,0.7,0,0.9,0c1.1,0.7,4.2,2.6,6.5,2.8c0.1,0,0.2,0,0.3,0c0.8,0,1.5-0.3,2.1-0.7c0.2,3.6,0.4,7,0.4,9.2
		C55,81.9,53.4,80.1,52,78.5z M60.5,61.4c0.3,0.7,0.6,1.3,0.8,1.8c0.2,0.4,0.5,0.9,0.6,1.2c-0.5,0.8-2.1,1.6-3,2
		c-1,0.5-1.6,0.8-1.9,1.6c-0.4,1-2.3,3.6-3.3,3.6c0,0,0,0-0.1,0c-1.5-0.1-4.2-1.6-5.6-2.6c-0.2-0.2-0.5-0.3-0.8-0.3c0,0-0.1,0-0.1,0
		c-1.2,0.1-3.3-0.1-3.9-0.7c-0.6-0.6-0.8-2.6-0.6-3.9c0.1-0.6-0.2-1.1-0.7-1.4c-1.7-1.1-2.1-1.8-2.2-2l2.6-3.1
		c0.3-0.3,0.4-0.7,0.4-1.1c-0.1-1.7,0.1-3.7,0.4-4.2c0,0,0,0,0,0c0.7,0,2.7,0.8,4.4,1.8c0.5,0.3,1.2,0.3,1.6-0.1
		c1.6-1.2,4.6-3,5.9-3.1c0.1,0.2,0.2,0.6,0.3,0.9c0.3,1,0.8,2.3,2,3.4c0.4,0.4,0.9,0.4,2,0.6c0.6,0.1,2,0.3,2.7,0.6
		c-0.2,0.4-0.4,0.8-0.6,1.2C60.7,59.1,60.1,60.3,60.5,61.4z"/>
	<path class="st0" d="M52.2,57.1c0,0-4.4-0.5-4.7,3.2c-0.4,3.6,3.9,5.1,6.5,4.3C56.5,63.8,56.6,57.3,52.2,57.1z"/>
</g>
</svg>
