<?xml version="1.0" encoding="UTF-8" standalone="no"?>
<!-- Created with Inkscape (http://www.inkscape.org/) -->

<svg
   width="210mm"
   height="297mm"
   viewBox="0 0 210 296.99999"
   version="1.1"
   id="svg28400"
   inkscape:version="1.1.1 (3bf5ae0d25, 2021-09-20)"
   sodipodi:docname="fork pull model.svg"
   xmlns:inkscape="http://www.inkscape.org/namespaces/inkscape"
   xmlns:sodipodi="http://sodipodi.sourceforge.net/DTD/sodipodi-0.dtd"
   xmlns:xlink="http://www.w3.org/1999/xlink"
   xmlns="http://www.w3.org/2000/svg"
   xmlns:svg="http://www.w3.org/2000/svg">
  <sodipodi:namedview
     id="namedview28402"
     pagecolor="#ffffff"
     bordercolor="#666666"
     borderopacity="1.0"
     inkscape:pageshadow="2"
     inkscape:pageopacity="0.0"
     inkscape:pagecheckerboard="0"
     inkscape:document-units="mm"
     showgrid="false"
     inkscape:zoom="1.3995495"
     inkscape:cx="329.74897"
     inkscape:cy="251.15225"
     inkscape:window-width="1920"
     inkscape:window-height="1016"
     inkscape:window-x="0"
     inkscape:window-y="27"
     inkscape:window-maximized="1"
     inkscape:current-layer="layer1"
     scale-x="1" />
  <defs
     id="defs28397">
    <marker
       style="overflow:visible"
       id="Arrow1Lend"
       refX="0"
       refY="0"
       orient="auto"
       inkscape:stockid="Arrow1Lend"
       inkscape:isstock="true">
      <path
         transform="matrix(-0.8,0,0,-0.8,-10,0)"
         style="fill:context-stroke;fill-rule:evenodd;stroke:context-stroke;stroke-width:1pt"
         d="M 0,0 5,-5 -12.5,0 5,5 Z"
         id="path86723" />
    </marker>
    <symbol
       id="repo-forked"
       viewBox="0 0 10 16">
      <title
         id="title68599">repo-forked</title>
      <path
         d="M 2.1166667,0.26458333 C 1.8229792,0.26458333 1.5875,0.5000625 1.5875,0.79375 c 0,0.19314583 0.1084792,0.365125 0.2645833,0.4550833 V 1.5875 L 1.3229167,2.1166667 0.79375,1.5875 V 1.2488333 C 0.94985417,1.158875 1.0583333,0.98954167 1.0583333,0.79375 1.0583333,0.5000625 0.82285417,0.26458333 0.52916667,0.26458333 0.23547917,0.26458333 0,0.5000625 0,0.79375 0,0.98689583 0.10847917,1.158875 0.26458333,1.2488333 v 0.4709584 l 0.79374997,0.79375 V 2.9845 C 0.90222917,3.0744583 0.79375,3.2437917 0.79375,3.4395833 c 0,0.2936875 0.2354792,0.5291667 0.5291667,0.5291667 0.2936875,0 0.5291666,-0.2354792 0.5291666,-0.5291667 C 1.8520833,3.2464375 1.7436042,3.0744583 1.5875,2.9845 V 2.5135417 l 0.79375,-0.79375 V 1.2488333 C 2.5373542,1.158875 2.6458333,0.98954167 2.6458333,0.79375 c 0,-0.2936875 -0.2354791,-0.52916667 -0.5291666,-0.52916667 z M 0.52916667,1.11125 c -0.174625,0 -0.3175,-0.14552083 -0.3175,-0.3175 0,-0.17197917 0.14552083,-0.3175 0.3175,-0.3175 0.17197916,0 0.3175,0.14552083 0.3175,0.3175 0,0.17197917 -0.14552084,0.3175 -0.3175,0.3175 z M 1.3229167,3.7570833 c -0.174625,0 -0.3175,-0.1455208 -0.3175,-0.3175 0,-0.1719791 0.1455208,-0.3175 0.3175,-0.3175 0.1719791,0 0.3175,0.1455209 0.3175,0.3175 0,0.1719792 -0.1455209,0.3175 -0.3175,0.3175 z M 2.1166667,1.11125 c -0.174625,0 -0.3175,-0.14552083 -0.3175,-0.3175 0,-0.17197917 0.1455208,-0.3175 0.3175,-0.3175 0.1719791,0 0.3175,0.14552083 0.3175,0.3175 0,0.17197917 -0.1455209,0.3175 -0.3175,0.3175 z"
         id="path68601"
         style="stroke-width:0.264583" />
    </symbol>
    <symbol
       id="git-merge"
       viewBox="0 0 12 16">
      <title
         id="title68299">git-merge</title>
      <path
         d="m 2.6458333,1.8520833 c -0.1931458,0 -0.365125,0.1084792 -0.4577291,0.269875 v -0.00529 C 1.9102917,2.111375 1.5875,2.0214167 1.3599583,1.8467917 1.1615208,1.6933333 0.96308333,1.4208125 0.85989583,1.2012083 A 0.52731458,0.52731458 0 0 0 0.52916667,0.2619375 C 0.23547917,0.2619375 0,0.5000625 0,0.79375 A 0.52916667,0.52916667 0 0 0 0.26458333,1.2488333 V 2.9845 C 0.10847917,3.0771042 0,3.2464375 0,3.4395833 0,3.7332708 0.23547917,3.96875 0.52916667,3.96875 A 0.52731458,0.52731458 0 0 0 0.79375,2.9845 V 2.0293542 C 0.97102083,2.2145625 1.17475,2.365375 1.4022917,2.4765 1.6298333,2.587625 1.9393958,2.6431875 2.1881042,2.6458333 v -0.00529 c 0.09525,0.1613958 0.2645833,0.269875 0.4577291,0.269875 C 2.9395208,2.9104167 3.175,2.6749375 3.175,2.38125 3.175,2.0875625 2.9395208,1.8520833 2.6458333,1.8520833 Z m -1.79916663,1.5875 c 0,0.174625 -0.14552084,0.3175 -0.3175,0.3175 -0.17197917,0 -0.3175,-0.1455208 -0.3175,-0.3175 0,-0.1719791 0.14552083,-0.3175 0.3175,-0.3175 0.17197916,0 0.3175,0.1455209 0.3175,0.3175 z m -0.3175,-2.3283333 c -0.174625,0 -0.3175,-0.14552083 -0.3175,-0.3175 0,-0.17197917 0.14552083,-0.3175 0.3175,-0.3175 0.17197916,0 0.3175,0.14552083 0.3175,0.3175 0,0.17197917 -0.14552084,0.3175 -0.3175,0.3175 z m 2.11666663,1.5875 c -0.174625,0 -0.3175,-0.1455208 -0.3175,-0.3175 0,-0.1719792 0.1455209,-0.3175 0.3175,-0.3175 0.1719792,0 0.3175,0.1455208 0.3175,0.3175 0,0.1719792 -0.1455208,0.3175 -0.3175,0.3175 z"
         id="path68301"
         style="stroke-width:0.264583" />
    </symbol>
    <symbol
       id="warning">
      <title
         id="title764">warning</title>
      <path
         d="M 4.1259125,2.9889979 2.555875,0.43206458 c -0.2415646,-0.39343541 -0.6368521,-0.39343541 -0.8784167,0 L 0.10742083,2.9889979 c -0.24182916,0.3931708 -0.06138333,0.7151688 0.40005,0.7151688 H 3.7258625 c 0.4614333,0 0.6418792,-0.321998 0.40005,-0.7151688 z M 2.1166667,3.175 c -0.14605,0 -0.2645834,-0.1182688 -0.2645834,-0.2645833 0,-0.1463146 0.1185334,-0.2645834 0.2645834,-0.2645834 0.1463145,0 0.2645833,0.1182688 0.2645833,0.2645834 C 2.38125,3.0567312 2.2629812,3.175 2.1166667,3.175 Z M 2.3010812,2.38125 H 1.9314583 L 1.825625,1.0583333 h 0.5820833 z"
         id="path766"
         style="stroke-width:0.264583" />
    </symbol>
    <symbol
       id="icon-check-alt"
       viewBox="0 0 1024 1024">
      <title
         id="title68860">check-alt</title>
      <path
         d="M 135.46667,0 C 60.6552,0 0,60.6552 0,135.46667 c 0,74.81146 60.6552,135.46666 135.46667,135.46666 74.81146,0 135.46666,-60.6552 135.46666,-135.46666 C 270.93333,60.6552 210.27813,0 135.46667,0 Z M 114.46933,197.97607 52.137733,135.636 76.081467,111.69227 114.46087,150.0886 195.8848,68.664667 219.82853,92.6084 Z"
         id="path68862"
         style="stroke-width:0.264583" />
    </symbol>
    <symbol
       id="icon-bubble-empty"
       viewBox="0 0 1024 1024">
      <title
         id="title82893">bubble-empty</title>
      <path
         class="path1"
         d="m 0,0 v 203.2 h 46.446017 v 67.73333 h 17.64665 L 107.87354,203.2 H 270.93333 V 0 Z M 16.933333,16.933333 H 254 V 186.26667 L 100.31571,186.5085 63.37935,244.41362 V 203.2 h 0.0082 L 63.3984,186.26667 H 16.933333 Z"
         id="path82895"
         style="stroke-width:0.264583" />
    </symbol>
    <symbol
       id="organization"
       viewBox="0 0 16 16">
      <title
         id="title68509">organization</title>
      <path
         d="m 4.2333333,3.4393187 c 0,0.1161521 -0.1190625,0.2645834 -0.2645833,0.2645834 H 2.1153437 c -0.1426104,0 -0.2629958,-0.1182688 -0.2632604,-0.2643188 H 0.26458333 C 0.12170833,3.4395833 0,3.2911521 0,3.175 0,2.4780875 0.79375,2.1166667 0.79375,2.1166667 c 0,0 0.0605896,-0.1082146 0,-0.2645834 C 0.57123542,1.6877771 0.51382083,1.6959792 0.52916667,1.0583333 0.5445125,0.41830625 0.89085208,0.26458333 1.190625,0.26458333 c 0.2997729,0 0.6461125,0.15345834 0.6614583,0.79374997 0.015346,0.6376459 -0.042069,0.6294438 -0.2645833,0.79375 -0.06059,0.1561042 0,0.2645834 0,0.2645834 0,0 0.4098396,0.1881187 0.6402917,0.55245 0.2053166,-0.1902355 0.4180416,-0.2881313 0.4180416,-0.2881313 0,0 0.06059,-0.1082146 0,-0.2645833 C 2.4233187,1.9523604 2.3659042,1.9602979 2.38125,1.3226521 2.3965958,0.682625 2.7429354,0.52890208 3.0427083,0.52890208 c 0.2997729,0 0.6447896,0.15372292 0.6601354,0.79375002 0.015611,0.6376458 -0.041804,0.6297083 -0.2645833,0.79375 -0.06059,0.1561041 0,0.2645833 0,0.2645833 0,0 0.7950729,0.3614208 0.7950729,1.0583333"
         id="path68511"
         style="stroke-width:0.264583" />
    </symbol>
    <symbol
       id="person"
       viewBox="0 0 12 16">
      <title
         id="title68529">person</title>
      <path
         d="M 3.175,3.7046958 C 3.175,3.8502167 3.0567312,3.96875 2.9109458,3.96875 H 0.2651125 C 0.11826875,3.96875 0,3.8502167 0,3.7041667 V 3.4395833 C 0,2.7429354 1.0583333,2.38125 1.0583333,2.38125 c 0,0 0.060854,-0.1084792 0,-0.2645833 C 0.83608333,1.952625 0.80856667,1.6959792 0.79375,1.0583333 0.83952292,0.41989375 1.2877271,0.26458333 1.5875,0.26458333 c 0.2997729,0 0.7479771,0.15504584 0.79375,0.79374997 -0.014817,0.6376459 -0.042333,0.8942917 -0.2645833,1.0583334 -0.060854,0.1561041 0,0.2645833 0,0.2645833 0,0 1.0583333,0.3616854 1.0583333,1.0583333 z"
         id="path68531"
         style="stroke-width:0.264583" />
    </symbol>
    <symbol
       id="three-bars"
       viewBox="0 0 12 16">
      <title
         id="title68714">three-bars</title>
      <path
         d="M 3.0188958,2.38125 H 0.15610417 C 0,2.38125 0,2.2727708 0,2.1166667 0,1.9605625 0,1.8520833 0.15610417,1.8520833 H 3.01625 c 0.1561042,0 0.1561042,0.1084792 0.1561042,0.2645834 0,0.1561041 0,0.2645833 -0.1561042,0.2645833 z m 0,-1.0583333 H 0.15610417 C 0,1.3229167 0,1.2144375 0,1.0583333 0,0.90222917 0,0.79375 0.15610417,0.79375 H 3.01625 c 0.1561042,0 0.1561042,0.10847917 0.1561042,0.2645833 0,0.1561042 0,0.2645834 -0.1561042,0.2645834 z m -2.86279163,1.5875 H 3.01625 c 0.1561042,0 0.1561042,0.1084791 0.1561042,0.2645833 0,0.1561042 0,0.2645833 -0.1561042,0.2645833 H 0.15610417 C 0,3.4395833 0,3.3311042 0,3.175 0,3.0188958 0,2.9104167 0.15610417,2.9104167 Z"
         id="path68716"
         style="stroke-width:0.264583" />
    </symbol>
    <symbol
       id="dialog-warning-symbolic">
      <title
         id="title13713">dialog-warning-symbolic</title>
      <g
         transform="translate(44.865777,59.115383)"
         id="g5937-5" />
      <g
         id="g6442-5"
         transform="translate(-199.35291,89.013321)">
        <rect
           style="fill:none;stroke:none;stroke-width:0.264583"
           id="rect1687-6"
           width="23.8125"
           height="23.8125"
           x="274.3812"
           y="5.9167128" />
        <path
           style="color:#000000;display:inline;overflow:visible;visibility:visible;fill:#808080;fill-opacity:1;fill-rule:nonzero;stroke:none;stroke-width:0.345371;marker:none;enable-background:accumulate"
           d="m 286.20216,7.5264339 a 1.6072768,1.6189745 0 0 0 -1.30587,0.8077027 l -9.50588,16.5850344 a 1.6072768,1.6189745 0 0 0 1.39113,2.428792 h 19.01176 a 1.6072768,1.6189745 0 0 0 1.39113,-2.428792 L 287.67855,8.3341366 a 1.6072768,1.6189745 0 0 0 -1.47639,-0.8077027 z m -0.9369,6.0590621 h 2.06034 v 2.969844 c 0,0.883532 -0.0317,1.69274 -0.0956,2.427242 -0.0639,0.734502 -0.14395,1.474356 -0.23978,2.219503 h -1.37356 c -0.10645,-0.745147 -0.19187,-1.485001 -0.2558,-2.219503 -0.0639,-0.745147 -0.0956,-1.554355 -0.0956,-2.427242 z m 1.02216,8.73435 c 0.36206,0 0.66564,0.122586 0.91054,0.36742 0.2449,0.234189 0.36742,0.537448 0.36742,0.910022 0,0.372573 -0.12252,0.675832 -0.36742,0.910022 -0.2449,0.234189 -0.54848,0.351399 -0.91054,0.351399 -0.35135,0 -0.65497,-0.11721 -0.91054,-0.351399 -0.24493,-0.23419 -0.36742,-0.537449 -0.36742,-0.910022 0,-0.372574 0.12249,-0.675833 0.36742,-0.910022 0.25557,-0.244834 0.55919,-0.36742 0.91054,-0.36742 z"
           id="path17" />
      </g>
    </symbol>
  </defs>
  <g
     inkscape:label="Calque 1"
     inkscape:groupmode="layer"
     id="layer1">
    <g
       id="g148359"
       transform="translate(-19.773313,-28.642869)">
      <path
         style="fill:#000000;fill-opacity:0.999564;stroke:#6a7d7d;stroke-width:1.565;stroke-linecap:butt;stroke-linejoin:miter;stroke-miterlimit:4;stroke-dasharray:none;stroke-opacity:1;marker-end:url(#Arrow1Lend)"
         d="M 24.947026,94.538559 H 192.25894"
         id="path85487" />
      <path
         style="fill:none;stroke:#8c8c8c;stroke-width:1.16;stroke-linecap:butt;stroke-linejoin:miter;stroke-miterlimit:4;stroke-dasharray:none;stroke-opacity:1"
         d="m 41.961045,94.535225 c 0,0 3.780673,-30.39379 26.976371,-30.336011 23.195695,0.05777 40.286994,0.0444 60.733874,0.0444 20.44688,0 24.41107,5.377235 30.28517,30.514154"
         id="path87791"
         sodipodi:nodetypes="cszc" />
      <g
         id="use83016"
         style="fill:#000000;stroke:none;stroke-width:1.00003;stroke-miterlimit:4;stroke-dasharray:none"
         transform="matrix(0,11.245678,-11.245678,0,64.274129,61.684679)">
        <title
           id="title83085">repo-forked</title>
        <path
           d="m 2.5770593,2.0466198 c -0.1435596,0 -0.2586661,0.1151064 -0.2586661,0.2586661 0,0.094413 0.053027,0.1784796 0.1293331,0.2224528 V 2.693285 L 2.1890602,2.9519511 1.9303941,2.693285 V 2.5277387 c 0.076306,-0.043973 0.129333,-0.1267463 0.129333,-0.2224528 0,-0.1435597 -0.1151063,-0.2586661 -0.258666,-0.2586661 -0.1435597,0 -0.2586661,0.1151064 -0.2586661,0.2586661 0,0.094413 0.053027,0.1784796 0.129333,0.2224528 v 0.2302129 l 0.3879991,0.3879991 v 0.2302128 c -0.076306,0.043973 -0.129333,0.1267464 -0.129333,0.2224528 0,0.1435597 0.1151064,0.2586661 0.2586661,0.2586661 0.1435597,0 0.2586661,-0.1151064 0.2586661,-0.2586661 0,-0.094413 -0.053027,-0.1784796 -0.1293331,-0.2224528 V 3.1459507 L 2.7063924,2.7579516 V 2.5277387 c 0.076307,-0.043973 0.129333,-0.1267463 0.129333,-0.2224528 0,-0.1435597 -0.1151064,-0.2586661 -0.2586661,-0.2586661 z M 1.8010611,2.4604855 c -0.08536,0 -0.1551997,-0.071133 -0.1551997,-0.1551996 0,-0.084067 0.071133,-0.1551996 0.1551997,-0.1551996 0.084066,0 0.1551996,0.071133 0.1551996,0.1551996 0,0.084067 -0.071133,0.1551996 -0.1551996,0.1551996 z m 0.3879991,1.2933304 c -0.08536,0 -0.1551996,-0.071133 -0.1551996,-0.1551996 0,-0.084066 0.071133,-0.1551997 0.1551996,-0.1551997 0.084067,0 0.1551997,0.071133 0.1551997,0.1551997 0,0.084067 -0.071133,0.1551996 -0.1551997,0.1551996 z M 2.5770593,2.4604855 c -0.08536,0 -0.1551996,-0.071133 -0.1551996,-0.1551996 0,-0.084067 0.071133,-0.1551996 0.1551996,-0.1551996 0.084067,0 0.1551997,0.071133 0.1551997,0.1551996 0,0.084067 -0.071133,0.1551996 -0.1551997,0.1551996 z"
           id="path83087"
           style="stroke-width:1.00003;stroke-miterlimit:4;stroke-dasharray:none" />
      </g>
      <use
         xlink:href="#git-merge"
         style="fill:#000000;stroke:none"
         id="use83625"
         x="0"
         y="0"
         width="100%"
         height="100%"
         transform="matrix(0,-0.26617252,-0.26617252,0,161.90432,93.274849)" />
      <use
         xlink:href="#warning"
         style="fill:#ff0c18;fill-opacity:1;stroke:#000000;stroke-opacity:1"
         id="use92294"
         x="0"
         y="0"
         width="100%"
         height="100%"
         transform="matrix(1.2665555,0,0,1.2665555,75.73723,47.499244)" />
      <use
         xlink:href="#icon-check-alt"
         style="fill:#30f016;fill-opacity:1;stroke:none"
         id="use92603"
         x="0"
         y="0"
         width="100%"
         height="100%"
         transform="matrix(0.10597274,0,0,0.10597274,131.82425,43.748331)" />
      <use
         xlink:href="#icon-bubble-empty"
         style="fill:#000000;stroke:none"
         id="use94378"
         x="0"
         y="0"
         width="100%"
         height="100%"
         transform="matrix(0.39025668,0,0,0.39025668,73.359512,25.331167)" />
      <use
         xlink:href="#icon-bubble-empty"
         style="fill:#000000;stroke:none"
         id="use94378-3"
         x="0"
         y="0"
         width="100%"
         height="100%"
         transform="matrix(0.38760287,0,0,0.38760287,129.62142,25.59406)" />
      <use
         xlink:href="#organization"
         style="fill:#000000;stroke:none"
         id="use95139"
         x="0"
         y="0"
         width="100%"
         height="100%"
         transform="matrix(0.26767969,0,0,0.26767969,136.79136,17.208545)" />
      <use
         xlink:href="#person"
         style="fill:#000000;stroke:none"
         id="use95288"
         x="0"
         y="0"
         width="100%"
         height="100%"
         transform="matrix(0.18683344,0,0,0.18683344,83.857887,27.082748)" />
      <use
         xlink:href="#three-bars"
         style="fill:#000000;fill-opacity:0.235021;stroke:none;stroke-opacity:1"
         id="use95324"
         x="0"
         y="0"
         width="100%"
         height="100%"
         transform="matrix(0.20258826,0,0,0.15770908,81.447587,43.81264)" />
      <use
         xlink:href="#icon-bubble-empty"
         style="fill:#000000;stroke:none"
         id="use94378-7"
         x="0"
         y="0"
         width="100%"
         height="100%"
         transform="matrix(0.39025668,0,0,0.39025668,104.88401,25.054806)" />
      <use
         xlink:href="#person"
         style="fill:#000000;stroke:none"
         id="use95288-0"
         x="0"
         y="0"
         width="100%"
         height="100%"
         transform="matrix(0.18683344,0,0,0.18683344,115.38238,26.806387)" />
      <use
         xlink:href="#person"
         style="fill:#000000;stroke:none"
         id="use95288-0-3"
         x="0"
         y="0"
         width="100%"
         height="100%"
         transform="matrix(0.18683344,0,0,0.18683344,104.47347,26.841939)" />
      <use
         xlink:href="#three-bars"
         style="fill:#000000;fill-opacity:0.235021;stroke:none;stroke-opacity:1"
         id="use95324-9"
         x="0"
         y="0"
         width="100%"
         height="100%"
         transform="matrix(0.20258826,0,0,0.15770908,112.97208,43.536279)" />
      <use
         xlink:href="#three-bars"
         style="fill:#000000;fill-opacity:0.235021;stroke:none;stroke-opacity:1"
         id="use95324-7"
         x="0"
         y="0"
         width="100%"
         height="100%"
         transform="matrix(0.20121063,0,0,0.15663663,138.18258,44.034759)" />
      <text
         xml:space="preserve"
         style="font-style:normal;font-weight:normal;font-size:10.5833px;line-height:1.25;font-family:sans-serif;fill:#000000;fill-opacity:1;stroke:none;stroke-width:0.264583"
         x="21.265577"
         y="105.47664"
         id="text103000"><tspan
           sodipodi:role="line"
           id="tspan102998"
           style="stroke-width:0.264583"
           x="21.265577"
           y="105.47664">Fork</tspan></text>
      <text
         xml:space="preserve"
         style="font-style:normal;font-weight:normal;font-size:10.5833px;line-height:1.25;font-family:sans-serif;fill:#000000;fill-opacity:1;stroke:none;stroke-width:0.264583"
         x="134.86377"
         y="104.8515"
         id="text107954"><tspan
           sodipodi:role="line"
           id="tspan107952"
           style="stroke-width:0.264583"
           x="134.86377"
           y="104.8515">Merge</tspan></text>
      <ellipse
         style="fill:#ffffff;fill-opacity:1;stroke:#8c8c8c;stroke-width:1;stroke-linecap:butt;stroke-miterlimit:4;stroke-dasharray:none;stroke-opacity:1"
         id="path120928"
         cx="42.178581"
         cy="94.699867"
         rx="2.2379982"
         ry="2.2481484" />
      <ellipse
         style="fill:#ffffff;fill-opacity:1;stroke:#8c8c8c;stroke-width:1;stroke-linecap:butt;stroke-miterlimit:4;stroke-dasharray:none;stroke-opacity:1"
         id="path120928-5"
         cx="89.254044"
         cy="64.446304"
         rx="2.2379982"
         ry="2.2481484" />
      <ellipse
         style="fill:#ffffff;fill-opacity:1;stroke:#8c8c8c;stroke-width:1;stroke-linecap:butt;stroke-miterlimit:4;stroke-dasharray:none;stroke-opacity:1"
         id="path120928-5-1"
         cx="73.299278"
         cy="64.164223"
         rx="2.2379982"
         ry="2.2481484" />
      <ellipse
         style="fill:#ffffff;fill-opacity:1;stroke:#8c8c8c;stroke-width:1;stroke-linecap:butt;stroke-miterlimit:4;stroke-dasharray:none;stroke-opacity:1"
         id="path120928-5-3"
         cx="102.16937"
         cy="64.411774"
         rx="2.2379982"
         ry="2.2481484" />
      <ellipse
         style="fill:#ffffff;fill-opacity:1;stroke:#8c8c8c;stroke-width:1;stroke-linecap:butt;stroke-miterlimit:4;stroke-dasharray:none;stroke-opacity:1"
         id="path120928-5-3-5"
         cx="121.60779"
         cy="64.59259"
         rx="2.2379982"
         ry="2.2481484" />
      <ellipse
         style="fill:#ffffff;fill-opacity:1;stroke:#8c8c8c;stroke-width:1;stroke-linecap:butt;stroke-miterlimit:4;stroke-dasharray:none;stroke-opacity:1"
         id="path120928-5-3-5-6"
         cx="160.25188"
         cy="95.146812"
         rx="2.2379982"
         ry="2.2481484" />
      <ellipse
         style="fill:#ffffff;fill-opacity:1;stroke:#8c8c8c;stroke-width:1;stroke-linecap:butt;stroke-miterlimit:4;stroke-dasharray:none;stroke-opacity:1"
         id="path120928-5-3-5-6-2"
         cx="66.667198"
         cy="94.883987"
         rx="2.2379982"
         ry="2.2481484" />
      <ellipse
         style="fill:#ffffff;fill-opacity:1;stroke:#8c8c8c;stroke-width:1;stroke-linecap:butt;stroke-miterlimit:4;stroke-dasharray:none;stroke-opacity:1"
         id="path120928-5-3-5-6-2-9"
         cx="114.58757"
         cy="95.004814"
         rx="2.2379982"
         ry="2.2481484" />
      <use
         xlink:href="#warning"
         style="fill:#e18808;fill-opacity:1;stroke:#000000;stroke-opacity:1"
         id="use125570"
         x="0"
         y="0"
         width="100%"
         height="100%"
         transform="translate(107.95331,48.137961)" />
      <text
         xml:space="preserve"
         style="font-style:normal;font-weight:normal;font-size:5.64444px;line-height:1.25;font-family:sans-serif;fill:#000000;fill-opacity:1;stroke:none;stroke-width:0.264583"
         x="69.970634"
         y="71.791183"
         id="text130341"><tspan
           sodipodi:role="line"
           id="tspan130339"
           style="font-size:5.64444px;stroke-width:0.264583"
           x="69.970634"
           y="71.791183">Pull request</tspan><tspan
           sodipodi:role="line"
           style="font-size:5.64444px;stroke-width:0.264583"
           x="69.970634"
           y="78.846733"
           id="tspan130367">Merge request</tspan><tspan
           sodipodi:role="line"
           style="font-size:5.64444px;stroke-width:0.264583"
           x="69.970634"
           y="85.902283"
           id="tspan138667">discussions/validations</tspan></text>
    </g>
  </g>
</svg>
