<?xml version="1.0" encoding="utf-8"?>
<!-- Generator: Adobe Illustrator 25.3.1, SVG Export Plug-In . SVG Version: 6.00 Build 0)  -->
<svg version="1.1" xmlns="http://www.w3.org/2000/svg" xmlns:xlink="http://www.w3.org/1999/xlink" x="0px" y="0px"
	 width="136px" viewBox="0 0 136 136" style="enable-background:new 0 0 136 136;" xml:space="preserve">
<style type="text/css">
	.st0{fill:#FFFFFF;}
	.st1{opacity:0.4;fill:#FFFFFF;}
	.st2{fill:#78DEA2;}
</style>
<ellipse transform="matrix(0.2783 -0.9605 0.9605 0.2783 -16.2358 114.3933)" cx="68" cy="68" rx="67.1" ry="66.8"/>
<path class="st0" d="M68.1,3.1c6.1,0,12.1,0.9,18,2.6c34.2,9.9,54,46,44,80.4c-4,13.8-12.2,25.6-23.7,34.1
	c-11.1,8.3-24.8,12.8-38.5,12.8c-6.1,0-12.1-0.9-18-2.6c-34.2-9.9-54-46-44-80.4c4-13.8,12.2-25.6,23.7-34.1
	C40.7,7.6,54.4,3.1,68.1,3.1 M68.1,0.1C38.7,0.1,11.7,19.4,3,49.2c-10.5,36,10.2,73.7,46,84.1c6.3,1.8,12.6,2.7,18.8,2.7
	c29.4,0,56.5-19.3,65.1-49.1c10.5-36-10.2-73.7-46-84.1C80.7,1,74.3,0.1,68.1,0.1L68.1,0.1z"/>
<g>
	<path class="st0" d="M27.6,51.9c-0.1,0-0.2,0-0.3-0.1c-0.1,0-0.1-0.1-0.2-0.2c0-0.1,0-0.1,0-0.2c0.2-0.5,0.4-0.9,0.4-1.2
		c0.1-0.3,0-0.6-0.3-0.7l-8.8-4.8l-1,1.9c-0.1,0.3-0.1,0.6,0.1,0.9c0.2,0.3,0.5,0.7,0.8,0.9c0.3,0.3,0.6,0.5,0.9,0.7
		c0.1,0.1,0.1,0.1,0.1,0.3c0,0.1,0,0.2-0.1,0.3c0,0.1-0.1,0.1-0.2,0.2c-0.1,0.1-0.2,0.1-0.3,0c-0.8-0.4-1.5-0.9-2.1-1.3
		s-1-0.6-1-0.7l5.4-9.9c0-0.1,0.4,0.1,1.1,0.4c0.7,0.3,1.5,0.7,2.2,1.1c0.1,0,0.1,0.1,0.1,0.2c0,0.1,0,0.2-0.1,0.3
		c-0.1,0.1-0.1,0.2-0.2,0.3s-0.2,0.1-0.3,0c-0.6-0.2-1.2-0.4-1.8-0.5c-0.6-0.1-1.1,0-1.3,0.4l-1,1.8l8.8,4.8c0.2,0.1,0.4,0.1,0.6,0
		c0.2-0.1,0.4-0.2,0.5-0.4c0.1-0.2,0.3-0.4,0.5-0.7c0.1-0.1,0.1-0.2,0.2-0.2c0.1,0,0.1,0,0.2,0.1c0.1,0,0.1,0.1,0.2,0.2
		c0.1,0.1,0.1,0.2,0,0.3l-3.1,5.7C27.8,51.8,27.7,51.9,27.6,51.9z"/>
	<path class="st0" d="M43,32.1c0.1,0,0.1,0,0.2,0.1c0.1,0.1,0.1,0.2,0.1,0.3c0,0.1,0,0.2,0,0.3l-4.1,3.8c-0.1,0.1-0.2,0.1-0.3,0
		c-0.1,0-0.2-0.1-0.3-0.2c-0.1-0.1-0.1-0.1-0.1-0.2c0-0.1,0-0.1,0.1-0.2c0.2-0.3,0.4-0.5,0.5-0.7c0.1-0.2,0.1-0.4,0-0.5L36,31.2
		l-4.1,3.8l3,3.3c0.2,0.2,0.3,0.3,0.5,0.2c0.2,0,0.3-0.1,0.5-0.1s0.3-0.2,0.5-0.4c0.1-0.1,0.2-0.1,0.2-0.1c0.1,0,0.1,0,0.2,0.1
		c0.1,0.1,0.1,0.2,0.1,0.3c0,0.1,0,0.2,0,0.3l-4,3.7c-0.1,0.1-0.2,0.1-0.3,0c-0.1,0-0.2-0.1-0.3-0.2c-0.1-0.1-0.1-0.1-0.1-0.2
		c0-0.1,0-0.1,0.1-0.2c0.5-0.6,0.7-1,0.5-1.2l-6.5-6.9c-0.2-0.2-0.3-0.3-0.5-0.3c-0.2,0-0.3,0-0.5,0.1c-0.1,0.1-0.3,0.2-0.5,0.4
		c-0.1,0.1-0.2,0.1-0.2,0.1c-0.1,0-0.1,0-0.2-0.1c-0.1-0.1-0.1-0.2-0.1-0.3c0-0.1,0-0.2,0-0.3l4-3.7c0.1-0.1,0.2-0.1,0.3,0
		c0.1,0,0.2,0.1,0.3,0.2c0.1,0.1,0.1,0.1,0.1,0.2s0,0.1-0.1,0.2c-0.6,0.6-0.8,1.1-0.5,1.3l2.7,2.9l4.1-3.8l-2.5-2.7
		c-0.2-0.2-0.3-0.2-0.5-0.2c-0.2,0-0.3,0.1-0.5,0.1s-0.3,0.2-0.6,0.4c-0.1,0.1-0.2,0.1-0.2,0.1c-0.1,0-0.1,0-0.2-0.1
		c-0.1-0.1-0.1-0.2-0.1-0.3c0-0.1,0-0.2,0-0.3l4.1-3.8c0.1-0.1,0.2-0.1,0.3,0c0.1,0,0.2,0.1,0.3,0.2c0.1,0.1,0.1,0.1,0.1,0.2
		s0,0.1-0.1,0.2c-0.6,0.6-0.8,1.1-0.5,1.3l6.5,6.9c0.2,0.2,0.3,0.3,0.5,0.2c0.2,0,0.3-0.1,0.5-0.1c0.1-0.1,0.3-0.2,0.6-0.4
		C42.9,32.1,42.9,32.1,43,32.1z"/>
	<path class="st0" d="M56.6,25.9c0.1,0,0.1,0.1,0.2,0.2c0,0.1,0,0.2,0,0.3c0,0.1-0.1,0.2-0.1,0.2l-5,2.2c-0.1,0-0.2,0-0.3-0.1
		c-0.1-0.1-0.2-0.2-0.2-0.2c0-0.1-0.1-0.2,0-0.2c0-0.1,0.1-0.1,0.2-0.2l0.3-0.2c0.3-0.1,0.4-0.2,0.5-0.3c0.1-0.1,0.1-0.1,0.1-0.2
		c0,0,0-0.1-0.1-0.1L49.9,25l-3.8,1.7l0.3,3.2c0,0,0,0.1,0,0.1c0,0.1,0.1,0.1,0.3,0.1c0.1,0,0.4-0.1,0.7-0.2l0.3-0.1
		c0.1,0,0.2,0,0.2,0c0.1,0,0.1,0.1,0.1,0.2c0,0.1,0,0.2,0,0.3c0,0.1-0.1,0.2-0.1,0.2L44.6,32c-0.1,0-0.2,0-0.3,0
		c-0.1-0.1-0.2-0.1-0.2-0.3c-0.1-0.1-0.1-0.2,0-0.3s0.1-0.1,0.2-0.2c0,0,0.1-0.1,0.2-0.1c0.2-0.1,0.3-0.2,0.4-0.2s0.2-0.2,0.3-0.3
		c0.1-0.1,0.1-0.3,0.1-0.5l-0.8-12l1.9-0.8l8.4,8.5c0.2,0.2,0.3,0.2,0.5,0.3c0.2,0,0.3,0,0.4,0c0.1,0,0.3-0.1,0.5-0.2
		c0.1,0,0.2-0.1,0.2-0.1C56.4,25.9,56.5,25.9,56.6,25.9z M45.6,20.1L46,26l3.4-1.5L45.6,20.1z"/>
	<path class="st0" d="M57.4,26.2c-0.1-0.1-0.1-0.2-0.1-0.3c0-0.1,0-0.2,0-0.2c0-0.1,0.1-0.1,0.2-0.1c1.1-0.2,1.6-0.5,1.5-0.9l-1-8.8
		c0-0.2-0.1-0.4-0.4-0.6c-0.2-0.2-0.5-0.3-0.7-0.4c-0.3-0.1-0.5-0.1-0.7-0.1c-0.1,0-0.2,0-0.3,0c0,0-0.1-0.1-0.1-0.2
		c0-0.1,0-0.2,0.1-0.3c0-0.1,0.1-0.2,0.2-0.2l4.2-0.5l7.9,7.6l0.1,0l-0.7-6.7c0-0.2-0.1-0.4-0.3-0.5c-0.2-0.1-0.4-0.2-0.5-0.2
		c-0.2,0-0.4,0-0.8,0c-0.1,0-0.2,0-0.3,0c0,0-0.1-0.1-0.1-0.2c0-0.1,0-0.2,0.1-0.3c0-0.1,0.1-0.2,0.2-0.2l4.1-0.4
		c0.1,0,0.2,0,0.2,0.1c0.1,0.1,0.1,0.2,0.1,0.3c0,0.1,0,0.2,0,0.2c0,0.1-0.1,0.1-0.2,0.1c-1,0.2-1.5,0.5-1.4,1l1.1,9.8
		c0,0.1,0,0.2,0.1,0.3l0.1,0.3c0,0.2,0,0.4-0.2,0.5c-0.2,0.1-0.4,0.2-0.6,0.2c-0.1,0-0.2,0-0.3,0c-0.1,0-0.2-0.1-0.2-0.1l-9.1-8.7
		l-0.1,0l0.9,7.9c0,0.2,0.1,0.4,0.3,0.5s0.4,0.2,0.6,0.2c0.2,0,0.5,0,0.8,0l0.2,0c0.1,0,0.2,0,0.3,0c0,0,0.1,0.1,0.1,0.2
		c0,0.1,0,0.2-0.1,0.3c0,0.1-0.1,0.2-0.2,0.2l-4.5,0.5C57.6,26.3,57.5,26.3,57.4,26.2z"/>
	<path class="st0" d="M73.1,24.9c0-0.1,0-0.2,0-0.3c0-0.1,0.1-0.2,0.1-0.2c0.1,0,0.1-0.1,0.2,0c0.3,0,0.6,0,0.9,0
		c0.3-0.1,0.4-0.2,0.5-0.3l2.1-9.2c0.1-0.2,0-0.4-0.1-0.6c-0.1-0.1-0.2-0.3-0.4-0.3c-0.1-0.1-0.4-0.2-0.6-0.3
		c-0.1,0-0.2-0.1-0.2-0.1c0,0,0-0.1,0-0.3c0-0.1,0.1-0.2,0.1-0.3c0.1-0.1,0.2-0.1,0.2-0.1l5.3,1.2c0.1,0,0.1,0.1,0.2,0.2
		c0,0.1,0,0.2,0,0.3c0,0.1-0.1,0.2-0.1,0.2c-0.1,0-0.1,0.1-0.2,0c-0.3,0-0.6-0.1-0.8,0c-0.3,0-0.4,0.1-0.4,0.3l-2.1,9.3
		c-0.1,0.2,0,0.4,0.1,0.6c0.1,0.1,0.2,0.2,0.4,0.3c0.1,0.1,0.3,0.1,0.6,0.2c0.1,0,0.2,0.1,0.2,0.1c0,0,0,0.1,0,0.3
		c0,0.1-0.1,0.2-0.1,0.3c-0.1,0.1-0.2,0.1-0.2,0.1l-5.3-1.2C73.2,25.1,73.1,25,73.1,24.9z M82,26.8c-0.1-0.2-0.3-0.5-0.4-0.9
		c-0.1-0.4-0.3-1-0.5-1.7c-0.2-0.8-0.4-1.5-0.6-2.1c-0.2-0.5-0.4-1-0.7-1.4c-0.3-0.4-0.5-0.6-0.9-0.7l5.7-3.9
		c0.1-0.1,0.1-0.1,0.1-0.1c0-0.1,0-0.2-0.2-0.3c-0.2-0.1-0.4-0.2-0.7-0.3c-0.1,0-0.2-0.1-0.2-0.1s0-0.1,0-0.2c0-0.1,0.1-0.2,0.1-0.3
		c0.1-0.1,0.2-0.1,0.2-0.1l4.2,1c0.1,0,0.1,0.1,0.2,0.2c0,0.1,0,0.2,0,0.3c0,0.2-0.2,0.3-0.4,0.3c-0.3-0.1-0.6-0.1-1-0.1
		c-0.3,0-0.6,0.1-0.9,0.3L82,19.3c0.3,0.2,0.5,0.6,0.8,1.2c0.3,0.6,0.6,1.5,1,2.6c0.3,0.9,0.6,1.5,0.7,1.8c0.3,0.7,0.5,1.2,0.8,1.5
		c0.2,0.4,0.5,0.6,0.7,0.6c0.1,0,0.2,0.1,0.2,0.2c0,0.1,0,0.2,0,0.3c0,0.1-0.1,0.2-0.1,0.2C85.9,28,85.9,28,85.8,28l-3.3-0.8
		C82.3,27.2,82.1,27,82,26.8z"/>
</g>
<g>
	<path class="st1" d="M56.3,119.7c0-0.5,0-1,0.1-1.5c-15.4-3.6-28.9-14.3-35.6-30c-3.8-9-4.9-18.5-3.6-27.5l-1.4-0.7
		c-0.9,6.1-0.8,12.3,0.5,18.5c0.7,3.5,1.8,6.9,3.2,10.3c0.3,0.8,0.7,1.5,1,2.2c0.1,0.2,0.2,0.4,0.3,0.7c0.3,0.5,0.5,1.1,0.8,1.6
		c0.1,0.2,0.2,0.4,0.3,0.6c0.4,0.7,0.8,1.4,1.2,2.1c0,0,0,0,0,0c0.4,0.7,0.8,1.3,1.3,2c0.1,0.2,0.3,0.4,0.4,0.6
		c0.3,0.5,0.7,0.9,1,1.4c0.1,0.2,0.3,0.4,0.4,0.6c0.5,0.6,1,1.2,1.5,1.8c0,0,0.1,0.1,0.1,0.1c0.5,0.6,1,1.1,1.5,1.7
		c0.2,0.2,0.3,0.4,0.5,0.5c0.4,0.4,0.8,0.8,1.2,1.2c0.2,0.2,0.3,0.3,0.5,0.5c0.6,0.5,1.1,1,1.7,1.6c0,0,0.1,0.1,0.1,0.1
		c0.5,0.5,1.1,0.9,1.6,1.4c0.2,0.2,0.4,0.3,0.6,0.5c0.4,0.3,0.9,0.7,1.3,1c0.2,0.1,0.4,0.3,0.6,0.4c0.6,0.4,1.2,0.9,1.9,1.3
		c0.1,0,0.1,0.1,0.2,0.1c0.6,0.4,1.2,0.7,1.8,1.1c0.2,0.1,0.4,0.2,0.6,0.4c0.5,0.3,1,0.5,1.4,0.8c0.2,0.1,0.4,0.2,0.6,0.3
		c0.7,0.3,1.3,0.7,2,1c0.1,0,0.1,0.1,0.2,0.1c0.6,0.3,1.3,0.6,1.9,0.8c0.2,0.1,0.5,0.2,0.7,0.3c0.5,0.2,1,0.4,1.5,0.6
		c0.2,0.1,0.4,0.2,0.7,0.2c0.7,0.2,1.4,0.5,2.2,0.7c0.1,0,0.1,0,0.2,0.1c0.7,0.2,1.3,0.4,2,0.5c0.2,0.1,0.5,0.1,0.7,0.2
		C56.1,119.6,56.2,119.7,56.3,119.7z"/>
	<path class="st1" d="M98.6,24.8c-0.6-0.4-1.2-0.9-1.9-1.3c-0.1,0-0.1-0.1-0.2-0.1c0,0,0,0-0.1,0c-0.2,0.5-0.3,1-0.5,1.5
		c8.3,5.4,15.1,13.2,19.3,23c6.5,15.3,5.1,31.9-2.4,45.4l1.1,1.2c0.4-0.6,0.7-1.3,1.1-2c5.4-10.5,7.3-22.9,4.8-35
		c-0.7-3.5-1.8-6.9-3.2-10.3c-0.3-0.8-0.7-1.5-1-2.2c-0.1-0.2-0.2-0.4-0.3-0.7c-0.3-0.5-0.5-1.1-0.8-1.6c-0.1-0.2-0.2-0.4-0.3-0.6
		c-0.4-0.7-0.8-1.4-1.2-2.1c0,0,0,0,0,0c-0.4-0.7-0.8-1.3-1.3-2c-0.1-0.2-0.3-0.4-0.4-0.6c-0.3-0.5-0.7-0.9-1-1.4
		c-0.1-0.2-0.3-0.4-0.4-0.6c-0.5-0.6-1-1.2-1.5-1.8c0,0-0.1-0.1-0.1-0.1c-0.5-0.6-1-1.1-1.5-1.7c-0.2-0.2-0.3-0.4-0.5-0.5
		c-0.4-0.4-0.8-0.8-1.2-1.2c-0.2-0.2-0.3-0.3-0.5-0.5c-0.6-0.5-1.1-1-1.7-1.6c0,0-0.1-0.1-0.1-0.1c-0.5-0.5-1.1-0.9-1.6-1.4
		c-0.2-0.2-0.4-0.3-0.6-0.5c-0.4-0.3-0.9-0.7-1.3-1C99,25.1,98.8,24.9,98.6,24.8z"/>
</g>
<g>
	<g>
		<path class="st0" d="M78.2,111.8c0.1,0.1,0.1,0.2,0.1,0.2c0,0.1,0,0.2,0,0.3c0,0-0.1,0.1-0.2,0.1c-0.2,0-0.4,0.1-0.5,0.1
			c-0.1,0-0.3,0.1-0.4,0.2c-0.1,0.1-0.3,0.3-0.4,0.5l-3,6.6L74,123c0,0.2,0.1,0.3,0.2,0.4s0.3,0.1,0.4,0.2c0.2,0,0.4,0,0.6,0
			c0.1,0,0.2,0,0.3,0c0.1,0,0.3,0,0.3,0.1c0.1,0,0.1,0.1,0.1,0.2c0,0.1,0,0.2-0.1,0.3c0,0.1-0.1,0.2-0.2,0.2l-6.1,0.5
			c-0.1,0-0.2,0-0.2-0.1c-0.1-0.1-0.1-0.2-0.1-0.3c0-0.1,0-0.2,0.1-0.2c0.1-0.1,0.2-0.1,0.3-0.1l0.3,0c0.4,0,0.6-0.1,0.8-0.2
			c0.2-0.1,0.3-0.2,0.3-0.5l-0.3-3.3l-4.4-6.1c-0.2-0.2-0.3-0.4-0.5-0.4c-0.2-0.1-0.3-0.1-0.4-0.2c-0.1,0-0.3,0-0.5,0
			c-0.1,0-0.2,0-0.3-0.1c0,0-0.1-0.1-0.1-0.2c0-0.1,0-0.2,0.1-0.2c0-0.1,0.1-0.1,0.2-0.1l6.2-0.5c0.1,0,0.2,0,0.2,0.1
			s0.1,0.2,0.1,0.2c0,0.1,0,0.2,0,0.2c0,0.1-0.1,0.1-0.2,0.1c-0.1,0-0.1,0-0.2,0c-0.4,0.1-0.7,0.1-0.8,0.1c-0.2,0-0.3,0.1-0.4,0.1
			c-0.1,0.1-0.1,0.1-0.1,0.2c0,0,0,0.1,0.1,0.2c0.1,0.1,0.1,0.1,0.1,0.1l3.3,5.1l2.6-5.7c0-0.1,0.1-0.2,0.1-0.2
			c0-0.1-0.1-0.2-0.3-0.2c-0.2,0-0.6-0.1-1-0.1c-0.1,0-0.2,0-0.2-0.1s-0.1-0.1-0.1-0.2c0-0.1,0-0.2,0.1-0.2c0-0.1,0.1-0.1,0.2-0.1
			l3.6-0.3C78,111.6,78.1,111.7,78.2,111.8z"/>
		<path class="st0" d="M85.7,121.4c-1.1-0.2-2.1-0.6-3-1.4s-1.5-1.7-2-2.8s-0.6-2.2-0.5-3.3c0.1-1.1,0.5-2.1,1.3-3s1.7-1.6,2.9-2.1
			s2.4-0.6,3.5-0.5c1.1,0.2,2.1,0.6,3,1.3c0.9,0.7,1.5,1.6,1.9,2.8c0.4,1.1,0.6,2.2,0.5,3.4c-0.1,1.1-0.5,2.1-1.2,3
			c-0.7,0.9-1.7,1.6-2.9,2.1C88,121.4,86.8,121.6,85.7,121.4z M90.6,117.9c0.1-1.1-0.2-2.5-0.8-4.2c-0.7-1.7-1.4-2.9-2.3-3.6
			c-0.8-0.7-1.8-0.9-2.8-0.5c-1,0.4-1.6,1.1-1.7,2.2c-0.1,1.1,0.2,2.5,0.8,4.2c0.7,1.7,1.4,2.9,2.3,3.6c0.9,0.7,1.8,0.9,2.8,0.5
			C89.9,119.8,90.5,119,90.6,117.9z"/>
		<path class="st0" d="M107,107c0.2,0.8,0.1,1.6-0.2,2.3c-0.3,0.8-0.8,1.4-1.6,2.1c-1.4,1.1-2.7,1.7-4,1.8c-1.3,0.1-2.5-0.6-3.7-2
			l-3.8-4.7c-0.1-0.2-0.3-0.3-0.5-0.3c-0.2,0-0.3,0-0.5,0.1c-0.2,0.1-0.3,0.2-0.5,0.3c-0.1,0.1-0.2,0.1-0.2,0.1s-0.1-0.1-0.2-0.2
			c-0.1-0.1-0.1-0.2-0.1-0.3c0-0.1,0-0.2,0.1-0.3l4.3-3.5c0.1-0.1,0.2-0.1,0.3,0c0.1,0,0.2,0.1,0.2,0.2c0.1,0.1,0.1,0.2,0.1,0.2
			c0,0.1,0,0.1-0.1,0.2c-0.3,0.3-0.5,0.5-0.6,0.7c-0.1,0.2-0.2,0.4-0.1,0.6l4.2,5c0.6,0.8,1.2,1.3,1.7,1.6c0.5,0.3,1,0.5,1.5,0.4
			c0.5-0.1,1-0.3,1.5-0.7c0.6-0.5,1-1.1,1.2-1.7c0.2-0.6,0.2-1.3,0-1.9c-0.2-0.6-0.5-1.2-0.9-1.8l-4.1-4.9c-0.2-0.2-0.4-0.2-0.7-0.1
			c-0.3,0.1-0.6,0.3-1,0.5c-0.1,0.1-0.2,0.1-0.2,0.1c-0.1,0-0.1-0.1-0.2-0.2c-0.1-0.1-0.1-0.2-0.1-0.3c0-0.1,0-0.2,0.1-0.3l3.2-2.6
			c0.1-0.1,0.2-0.1,0.3,0c0.1,0,0.2,0.1,0.2,0.2c0.1,0.1,0.1,0.2,0.1,0.2c0,0.1,0,0.1-0.1,0.2c-0.3,0.3-0.6,0.6-0.7,0.9
			c-0.1,0.3-0.1,0.5,0.1,0.7l4,4.9C106.5,105.5,106.9,106.2,107,107z"/>
	</g>
</g>
<g>
	<path class="st2" d="M91.6,92.2c-0.1-0.1-4.1-3.7-3.9-9.5c0.1-1.3,2.3-5,3.4-7.9c1.5-4.1,2.2-8.6,1.8-12c-0.3-2.3-1.1-4.1-2.3-4.8
		c-0.8-0.5-1.8-0.6-2.9,0c-2,1-1.3,5.1-1.3,5.1c0.5,4.5-2.6,8.4-7,8.9c-2.1,0.2-4.2-0.4-5.9-1.7c-1.7-1.3-2.7-3.2-3-5.3
		c-0.5-4.4,2.6-8.3,7-8.8c0.7-0.1,1.4-0.1,2.1,0c3.9,0.7,5-0.1,5.2-1.4c0.4-2.3-2.1-3.5-2.1-3.6c-2.2-1.3-5.3-1.3-7.4-0.9
		c-6.3,1-9.3,4.9-10,6.6c-1.2-0.9-12.7-9.5-16.8-12.9c-3.2-2.6-5.2-1.5-5.7-0.7c-2.1,3,0.4,4.9,0.9,5.3l15.4,13.8l-5.4-1.5
		c-5.7-1.6-15.2-4-16.5-4c-1.7,0-3.9,0.4-4.1,2.7c-0.2,2.3,2.3,3.3,2.4,3.3l22,7.8L38,72.3c-1.5,0.1-2.3,0.6-2.8,1.3
		c-0.5,0.7-0.4,1.5-0.4,1.5l0,0.2c0.2,3.2,5.3,2.6,10.1,3.1c7.8,0.8,11.9,1.4,12.1,1.4C68.6,82.9,70,98.9,70.1,99.6
		C70.1,99.6,81.3,102.2,91.6,92.2z"/>
</g>
<rect x="79.6" y="34.1" transform="matrix(0.9923 -0.1238 0.1238 0.9923 -4.1691 10.2565)" class="st0" width="1.8" height="9.3"/>
<rect x="86.7" y="39.3" transform="matrix(0.4321 -0.9018 0.9018 0.4321 15.6652 105.1665)" class="st0" width="9.3" height="1.8"/>
<rect x="94.6" y="45.3" transform="matrix(0.7704 -0.6376 0.6376 0.7704 -6.6597 73.8316)" class="st0" width="9.3" height="1.8"/>
</svg>
