<?xml version="1.0" encoding="utf-8"?>
<!-- Generator: Adobe Illustrator 25.3.1, SVG Export Plug-In . SVG Version: 6.00 Build 0)  -->
<svg version="1.1" id="Layer_1" xmlns="http://www.w3.org/2000/svg" xmlns:xlink="http://www.w3.org/1999/xlink" x="0px" y="0px"
	 viewBox="0 0 512 512" style="enable-background:new 0 0 512 512;" xml:space="preserve">
<path d="M152.1,512c-16.9,0-33.9-5.6-45.1-22.6c-16.9-22.6-16.9-62.1,11.3-79l197.5-152.3l-197.5-158C95.7,83.2,90,43.7,107,21.1
	s56.4-28.2,79-11.3l253.9,197.5c11.3,11.3,22.6,28.2,22.6,45.1c0,16.9-5.6,33.9-22.6,45.1L186,495.1C180.3,512,163.4,512,152.1,512z
	"/>
</svg>
